{
    "de": "Bla Bla Bla, ich bin die TU. Hier, ein Link: <a href='https: //www.hochschulsport.fu-berlin.de/ressourcen/dokumente/bootshausordnung.pdf' target='_blank' rel='noreferrer'>Bootshausordnung Wassersportzentrum</a>",
    "en": "Yadda Yadda Yadda, I'm the TU. Here, a Link: <a href='https: //www.hochschulsport.fu-berlin.de/ressourcen/dokumente/bootshausordnung.pdf' target='_blank' rel='noreferrer'>Bootshausordnung Wassersportzentrum</a>"
}
